Library/Bee/artifacts/mvdfrm/Unity.Services.Core.Internal.ref.dll_AF4CB5E2931CD800.mvfrm
Library/Bee/artifacts/mvdfrm/UnityEditor.UI.ref.dll_452FB8EBD860BCAB.mvfrm
Library/Bee/artifacts/mvdfrm/UnityEngine.UI.ref.dll_01958F46DE82E516.mvfrm
Library/Bee/artifacts/mvdfrm/Unity.Burst.Cecil.Mdb.dll_1554EF626ADF9535.mvfrm
Library/Bee/artifacts/mvdfrm/Unity.Burst.Cecil.Pdb.dll_2CA767D1E99496B8.mvfrm
Library/Bee/artifacts/mvdfrm/Unity.Burst.Cecil.Rocks.dll_9C35AA9C39599DD8.mvfrm
Library/Bee/artifacts/mvdfrm/Unity.Burst.Cecil.dll_EB2EC5E3C49713F8.mvfrm
Library/Bee/artifacts/mvdfrm/Unity.Burst.Unsafe.dll_E4E2CEA44175E91B.mvfrm
Library/Bee/artifacts/mvdfrm/Unity.Plastic.Antlr3.Runtime.dll_1D744C52C5216672.mvfrm
Library/Bee/artifacts/mvdfrm/Unity.Plastic.Newtonsoft.Json.dll_BA91C1E175CE4EA3.mvfrm
Library/Bee/artifacts/mvdfrm/Unity.VisualScripting.IonicZip.dll_8DA990DF1302C938.mvfrm
Library/Bee/artifacts/mvdfrm/Unity.VisualScripting.YamlDotNet.dll_8D89EC272166D0C4.mvfrm
Library/Bee/artifacts/mvdfrm/Unity.VisualScripting.TextureAssets.dll_24A8157AE2342EBC.mvfrm
Library/Bee/artifacts/mvdfrm/Unity.VisualScripting.Antlr3.Runtime.dll_3EF71308522FE0E3.mvfrm
Library/Bee/artifacts/mvdfrm/UnityEditor.Graphs.dll_28CCDC868091D291.mvfrm
Library/Bee/artifacts/mvdfrm/UnityEditor.CoreModule.dll_9C39C404C329675F.mvfrm
Library/Bee/artifacts/mvdfrm/UnityEditor.DeviceSimulatorModule.dll_BDD7C8A5DD797D92.mvfrm
Library/Bee/artifacts/mvdfrm/UnityEditor.DiagnosticsModule.dll_D246F368863CFB60.mvfrm
Library/Bee/artifacts/mvdfrm/UnityEditor.GraphViewModule.dll_20FB9D2350B27337.mvfrm
Library/Bee/artifacts/mvdfrm/UnityEditor.PackageManagerUIModule.dll_9DA54554F4A483FB.mvfrm
Library/Bee/artifacts/mvdfrm/UnityEditor.QuickSearchModule.dll_5D567475DF13F7B9.mvfrm
Library/Bee/artifacts/mvdfrm/UnityEditor.SceneTemplateModule.dll_91354D24C943575A.mvfrm
Library/Bee/artifacts/mvdfrm/UnityEditor.TextCoreFontEngineModule.dll_A9E7076A52AB41FD.mvfrm
Library/Bee/artifacts/mvdfrm/UnityEditor.TextCoreTextEngineModule.dll_F1CF3DDBE22EFB1B.mvfrm
Library/Bee/artifacts/mvdfrm/UnityEditor.UIBuilderModule.dll_75844A3FC36AEC6B.mvfrm
Library/Bee/artifacts/mvdfrm/UnityEditor.UIElementsModule.dll_2B0F1752F24BC03B.mvfrm
Library/Bee/artifacts/mvdfrm/UnityEditor.UIElementsSamplesModule.dll_67E5D5CE542EDDE2.mvfrm
Library/Bee/artifacts/mvdfrm/UnityEditor.UIServiceModule.dll_AE765BA2ACA23C85.mvfrm
Library/Bee/artifacts/mvdfrm/UnityEditor.UnityConnectModule.dll_81EC11AEF3DAC595.mvfrm
Library/Bee/artifacts/mvdfrm/UnityEditor.dll_7FF655921FBC0406.mvfrm
Library/Bee/artifacts/mvdfrm/UnityEngine.AIModule.dll_3FF8A2A20F677FD3.mvfrm
Library/Bee/artifacts/mvdfrm/UnityEngine.AccessibilityModule.dll_C3DAB8BBC9B97EF7.mvfrm
Library/Bee/artifacts/mvdfrm/UnityEngine.AndroidJNIModule.dll_A95800263B6B2F11.mvfrm
Library/Bee/artifacts/mvdfrm/UnityEngine.AnimationModule.dll_EF81194C2B0F47DD.mvfrm
Library/Bee/artifacts/mvdfrm/UnityEngine.AssetBundleModule.dll_A13FA767417AACAB.mvfrm
Library/Bee/artifacts/mvdfrm/UnityEngine.AudioModule.dll_B6B23095409BE98F.mvfrm
Library/Bee/artifacts/mvdfrm/UnityEngine.ClothModule.dll_1D9A8D901AB8C873.mvfrm
Library/Bee/artifacts/mvdfrm/UnityEngine.ClusterInputModule.dll_018886C4A562985B.mvfrm
Library/Bee/artifacts/mvdfrm/UnityEngine.ClusterRendererModule.dll_C3848B174D348B16.mvfrm
Library/Bee/artifacts/mvdfrm/UnityEngine.CoreModule.dll_BF5A97576B2ED28A.mvfrm
Library/Bee/artifacts/mvdfrm/UnityEngine.CrashReportingModule.dll_9334622467CD6062.mvfrm
Library/Bee/artifacts/mvdfrm/UnityEngine.DSPGraphModule.dll_154775F97B794448.mvfrm
Library/Bee/artifacts/mvdfrm/UnityEngine.DirectorModule.dll_0FF6149009187327.mvfrm
Library/Bee/artifacts/mvdfrm/UnityEngine.GIModule.dll_D834EBAFAB1667ED.mvfrm
Library/Bee/artifacts/mvdfrm/UnityEngine.GameCenterModule.dll_D3A54A4101AC2002.mvfrm
Library/Bee/artifacts/mvdfrm/UnityEngine.GridModule.dll_9CCBB34583836881.mvfrm
Library/Bee/artifacts/mvdfrm/UnityEngine.HotReloadModule.dll_70C9D7520642635F.mvfrm
Library/Bee/artifacts/mvdfrm/UnityEngine.IMGUIModule.dll_EF11CFFC06CD7D70.mvfrm
Library/Bee/artifacts/mvdfrm/UnityEngine.ImageConversionModule.dll_2F7688C7CF59430A.mvfrm
Library/Bee/artifacts/mvdfrm/UnityEngine.InputLegacyModule.dll_3284C285D96C629C.mvfrm
Library/Bee/artifacts/mvdfrm/UnityEngine.InputModule.dll_1D27F845B6D40E33.mvfrm
Library/Bee/artifacts/mvdfrm/UnityEngine.JSONSerializeModule.dll_23F241F7C8F4DF81.mvfrm
Library/Bee/artifacts/mvdfrm/UnityEngine.LocalizationModule.dll_3FD551173CDE8B54.mvfrm
Library/Bee/artifacts/mvdfrm/UnityEngine.ParticleSystemModule.dll_E646AB70D5DEEBF0.mvfrm
Library/Bee/artifacts/mvdfrm/UnityEngine.PerformanceReportingModule.dll_9163AD75E3877149.mvfrm
Library/Bee/artifacts/mvdfrm/UnityEngine.Physics2DModule.dll_3C27093CCC0C3F72.mvfrm
Library/Bee/artifacts/mvdfrm/UnityEngine.PhysicsModule.dll_C20102AEBFC5EC40.mvfrm
Library/Bee/artifacts/mvdfrm/UnityEngine.ProfilerModule.dll_423C4DC6A271FA34.mvfrm
Library/Bee/artifacts/mvdfrm/UnityEngine.RuntimeInitializeOnLoadManagerInitializerModule.dll_55FC65FF4783943B.mvfrm
Library/Bee/artifacts/mvdfrm/UnityEngine.ScreenCaptureModule.dll_3DD9EF7CDD610BE3.mvfrm
Library/Bee/artifacts/mvdfrm/UnityEngine.SharedInternalsModule.dll_B387C79D46873E5A.mvfrm
Library/Bee/artifacts/mvdfrm/UnityEngine.SpriteMaskModule.dll_BCD1BCD1231BB57C.mvfrm
Library/Bee/artifacts/mvdfrm/UnityEngine.SpriteShapeModule.dll_BAA0D4C1F71CE4B5.mvfrm
Library/Bee/artifacts/mvdfrm/UnityEngine.StreamingModule.dll_A416069C7A96FF1B.mvfrm
Library/Bee/artifacts/mvdfrm/UnityEngine.SubstanceModule.dll_80C11AE5C5E9FD29.mvfrm
Library/Bee/artifacts/mvdfrm/UnityEngine.SubsystemsModule.dll_277F2332F1639D8F.mvfrm
Library/Bee/artifacts/mvdfrm/UnityEngine.TLSModule.dll_46BA6D9D980B2D14.mvfrm
Library/Bee/artifacts/mvdfrm/UnityEngine.TerrainModule.dll_DC477E1D9584352E.mvfrm
Library/Bee/artifacts/mvdfrm/UnityEngine.TerrainPhysicsModule.dll_E6C15443EF21E67D.mvfrm
Library/Bee/artifacts/mvdfrm/UnityEngine.TextCoreFontEngineModule.dll_284682BD65A900C8.mvfrm
Library/Bee/artifacts/mvdfrm/UnityEngine.TextCoreTextEngineModule.dll_702EB92EF52CB9E6.mvfrm
Library/Bee/artifacts/mvdfrm/UnityEngine.TextRenderingModule.dll_6719618794988BD8.mvfrm
Library/Bee/artifacts/mvdfrm/UnityEngine.TilemapModule.dll_7B43E59EAD411637.mvfrm
Library/Bee/artifacts/mvdfrm/UnityEngine.UIElementsModule.dll_2BBD849AF48FD986.mvfrm
Library/Bee/artifacts/mvdfrm/UnityEngine.UIElementsNativeModule.dll_E81EF9EA661CF41D.mvfrm
Library/Bee/artifacts/mvdfrm/UnityEngine.UIModule.dll_3B6C40CF6BAE857F.mvfrm
Library/Bee/artifacts/mvdfrm/UnityEngine.UNETModule.dll_5200DF40B83DC803.mvfrm
Library/Bee/artifacts/mvdfrm/UnityEngine.UmbraModule.dll_3186DCADCDC29502.mvfrm
Library/Bee/artifacts/mvdfrm/UnityEngine.UnityAnalyticsCommonModule.dll_2CA26AB9FD700FA7.mvfrm
Library/Bee/artifacts/mvdfrm/UnityEngine.UnityAnalyticsModule.dll_05E61C3A82063DEC.mvfrm
Library/Bee/artifacts/mvdfrm/UnityEngine.UnityConnectModule.dll_6F4B95BDEE62C640.mvfrm
Library/Bee/artifacts/mvdfrm/UnityEngine.UnityCurlModule.dll_229DBA7D9B2339CA.mvfrm
Library/Bee/artifacts/mvdfrm/UnityEngine.UnityTestProtocolModule.dll_23A88BC0AE2A3338.mvfrm
Library/Bee/artifacts/mvdfrm/UnityEngine.UnityWebRequestAssetBundleModule.dll_4B8B0DB84702F1BD.mvfrm
Library/Bee/artifacts/mvdfrm/UnityEngine.UnityWebRequestAudioModule.dll_0960015469F23BE1.mvfrm
Library/Bee/artifacts/mvdfrm/UnityEngine.UnityWebRequestModule.dll_41159071DA4DDD89.mvfrm
Library/Bee/artifacts/mvdfrm/UnityEngine.UnityWebRequestTextureModule.dll_435E0CAE957E87D6.mvfrm
Library/Bee/artifacts/mvdfrm/UnityEngine.UnityWebRequestWWWModule.dll_3AF0FE8AE4EC7652.mvfrm
Library/Bee/artifacts/mvdfrm/UnityEngine.VFXModule.dll_C799060C6E789681.mvfrm
Library/Bee/artifacts/mvdfrm/UnityEngine.VRModule.dll_8E3E67550D690AF7.mvfrm
Library/Bee/artifacts/mvdfrm/UnityEngine.VehiclesModule.dll_87B90E0F834242C2.mvfrm
Library/Bee/artifacts/mvdfrm/UnityEngine.VideoModule.dll_DBBBB500032E0534.mvfrm
Library/Bee/artifacts/mvdfrm/UnityEngine.VirtualTexturingModule.dll_0CABAE593ECB74A8.mvfrm
Library/Bee/artifacts/mvdfrm/UnityEngine.WindModule.dll_35A9727FFC6550F3.mvfrm
Library/Bee/artifacts/mvdfrm/UnityEngine.XRModule.dll_C0FD2A5996A35855.mvfrm
Library/Bee/artifacts/mvdfrm/UnityEngine.dll_B29A9C6A7E2F90EB.mvfrm
Library/Bee/artifacts/mvdfrm/UnityEditor.LinuxStandalone.Extensions.dll_14E64A715706FC21.mvfrm
Library/Bee/artifacts/mvdfrm/UnityEditor.WebGL.Extensions.dll_DA311EE541BC5AC1.mvfrm